module gitlab.com/gitlab-org/cli

go 1.17

require (
	github.com/AlecAivazis/survey/v2 v2.3.2
	github.com/MakeNowJust/heredoc v1.0.0
	github.com/acarl005/stripansi v0.0.0-20180116102854-5a71ef0e047d
	github.com/alecthomas/assert v0.0.0-20170929043011-405dbfeb8e38
	github.com/avast/retry-go v3.0.0+incompatible
	github.com/briandowns/spinner v1.16.0
	github.com/charmbracelet/glamour v0.3.0
	github.com/dustin/go-humanize v1.0.0
	github.com/gdamore/tcell/v2 v2.4.1-0.20210905002822-f057f0a857a1
	github.com/google/renameio v1.0.1
	github.com/google/shlex v0.0.0-20191202100458-e7afc7fbc510
	github.com/gosuri/uilive v0.0.4
	github.com/hashicorp/go-multierror v1.1.1
	github.com/hashicorp/go-retryablehttp v0.7.0
	github.com/hashicorp/go-version v1.3.0
	github.com/jarcoal/httpmock v1.0.8
	github.com/kballard/go-shellquote v0.0.0-20180428030007-95032a82bc51
	github.com/lunixbochs/vtclean v1.0.0
	github.com/mattn/go-colorable v0.1.11
	github.com/mattn/go-isatty v0.0.14
	github.com/mattn/go-runewidth v0.0.13
	github.com/mgutz/ansi v0.0.0-20200706080929-d51e80ef957d
	github.com/mitchellh/go-homedir v1.1.0
	github.com/muesli/termenv v0.9.0
	github.com/otiai10/copy v1.6.0
	github.com/pkg/errors v0.9.1
	github.com/rivo/tview v0.0.0-20211029142923-a4acb08f513e
	github.com/spf13/cast v1.4.1
	github.com/spf13/cobra v1.2.1
	github.com/spf13/pflag v1.0.5
	github.com/stretchr/testify v1.7.0
	github.com/tidwall/pretty v1.2.0
	github.com/xanzy/go-gitlab v0.51.1
	golang.org/x/sync v0.0.0-20210220032951-036812b2e83c
	golang.org/x/term v0.0.0-20210927222741-03fcf44c2211
	gopkg.in/yaml.v3 v3.0.0-20210107192922-496545a6307b
)

require (
	github.com/alecthomas/chroma v0.9.4 // indirect
	github.com/alecthomas/colour v0.0.0-20160524082231-60882d9e2721 // indirect
	github.com/alecthomas/repr v0.0.0-20180818092828-117648cd9897 // indirect
	github.com/aymerick/douceur v0.2.0 // indirect
	github.com/cpuguy83/go-md2man/v2 v2.0.1 // indirect
	github.com/davecgh/go-spew v1.1.1 // indirect
	github.com/dlclark/regexp2 v1.4.0 // indirect
	github.com/fatih/color v1.13.0 // indirect
	github.com/gdamore/encoding v1.0.0 // indirect
	github.com/golang/protobuf v1.5.2 // indirect
	github.com/google/go-querystring v1.1.0 // indirect
	github.com/gorilla/css v1.0.0 // indirect
	github.com/hashicorp/errwrap v1.0.0 // indirect
	github.com/hashicorp/go-cleanhttp v0.5.2 // indirect
	github.com/inconshreveable/mousetrap v1.0.0 // indirect
	github.com/lucasb-eyer/go-colorful v1.2.0 // indirect
	github.com/microcosm-cc/bluemonday v1.0.16 // indirect
	github.com/muesli/reflow v0.3.0 // indirect
	github.com/olekukonko/tablewriter v0.0.5 // indirect
	github.com/pmezard/go-difflib v1.0.0 // indirect
	github.com/rivo/uniseg v0.2.0 // indirect
	github.com/russross/blackfriday/v2 v2.1.0 // indirect
	github.com/sergi/go-diff v1.0.0 // indirect
	github.com/yuin/goldmark v1.4.2 // indirect
	github.com/yuin/goldmark-emoji v1.0.1 // indirect
	golang.org/x/net v0.0.0-20211101193420-4a448f8816b3 // indirect
	golang.org/x/oauth2 v0.0.0-20211028175245-ba495a64dcb5 // indirect
	golang.org/x/sys v0.0.0-20211103184734-ae416a5f93c7 // indirect
	golang.org/x/text v0.3.7 // indirect
	golang.org/x/time v0.0.0-20210723032227-1f47c861a9ac // indirect
	google.golang.org/appengine v1.6.7 // indirect
	google.golang.org/protobuf v1.27.1 // indirect
	gopkg.in/yaml.v2 v2.4.0 // indirect
)
